\relax 
\providecommand\hyper@newdestlabel[2]{}
\providecommand\HyperFirstAtBeginDocument{\AtBeginDocument}
\HyperFirstAtBeginDocument{\ifx\hyper@anchor\@undefined
\global\let\oldcontentsline\contentsline
\gdef\contentsline#1#2#3#4{\oldcontentsline{#1}{#2}{#3}}
\global\let\oldnewlabel\newlabel
\gdef\newlabel#1#2{\newlabelxx{#1}#2}
\gdef\newlabelxx#1#2#3#4#5#6{\oldnewlabel{#1}{{#2}{#3}}}
\AtEndDocument{\ifx\hyper@anchor\@undefined
\let\contentsline\oldcontentsline
\let\newlabel\oldnewlabel
\fi}
\fi}
\global\let\hyper@last\relax 
\gdef\HyperFirstAtBeginDocument#1{#1}
\providecommand\HyField@AuxAddToFields[1]{}
\providecommand\HyField@AuxAddToCoFields[2]{}
\@writefile{toc}{\beamer@endinputifotherversion {3.36pt}}
\@writefile{nav}{\beamer@endinputifotherversion {3.36pt}}
\select@language{english}
\@writefile{toc}{\select@language{english}}
\@writefile{lof}{\select@language{english}}
\@writefile{lot}{\select@language{english}}
\@writefile{nav}{\headcommand {\slideentry {0}{0}{1}{1/1}{}{0}}}
\@writefile{nav}{\headcommand {\beamer@framepages {1}{1}}}
\@writefile{nav}{\headcommand {\slideentry {0}{0}{2}{2/2}{}{0}}}
\@writefile{nav}{\headcommand {\beamer@framepages {2}{2}}}
\@writefile{toc}{\beamer@sectionintoc {1}{Theoretical Framework}{3}{0}{1}}
\@writefile{nav}{\headcommand {\sectionentry {1}{Theoretical Framework}{3}{Theoretical Framework}{0}}}
\@writefile{nav}{\headcommand {\beamer@sectionpages {1}{2}}}
\@writefile{nav}{\headcommand {\beamer@subsectionpages {1}{2}}}
\@writefile{nav}{\headcommand {\slideentry {1}{0}{1}{3/3}{}{0}}}
\@writefile{nav}{\headcommand {\beamer@framepages {3}{3}}}
\@writefile{nav}{\headcommand {\slideentry {1}{0}{2}{4/4}{}{0}}}
\@writefile{nav}{\headcommand {\beamer@framepages {4}{4}}}
\@writefile{nav}{\headcommand {\slideentry {1}{0}{3}{5/5}{}{0}}}
\@writefile{nav}{\headcommand {\beamer@framepages {5}{5}}}
\citation{snp-tutorial}
\@writefile{nav}{\headcommand {\slideentry {1}{0}{4}{6/6}{}{0}}}
\@writefile{nav}{\headcommand {\beamer@framepages {6}{6}}}
\@writefile{nav}{\headcommand {\slideentry {1}{0}{5}{7/8}{}{0}}}
\@writefile{nav}{\headcommand {\beamer@framepages {7}{8}}}
\@writefile{nav}{\headcommand {\slideentry {1}{0}{6}{9/9}{}{0}}}
\@writefile{nav}{\headcommand {\beamer@framepages {9}{9}}}
\@writefile{nav}{\headcommand {\slideentry {1}{0}{7}{10/10}{}{0}}}
\@writefile{nav}{\headcommand {\beamer@framepages {10}{10}}}
\@writefile{nav}{\headcommand {\slideentry {1}{0}{8}{11/11}{}{0}}}
\@writefile{nav}{\headcommand {\beamer@framepages {11}{11}}}
\@writefile{nav}{\headcommand {\slideentry {1}{0}{9}{12/12}{}{0}}}
\@writefile{nav}{\headcommand {\beamer@framepages {12}{12}}}
\@writefile{nav}{\headcommand {\slideentry {1}{0}{10}{13/13}{}{0}}}
\@writefile{nav}{\headcommand {\beamer@framepages {13}{13}}}
\@writefile{nav}{\headcommand {\slideentry {1}{0}{11}{14/14}{}{0}}}
\@writefile{nav}{\headcommand {\beamer@framepages {14}{14}}}
\@writefile{nav}{\headcommand {\slideentry {1}{0}{12}{15/15}{}{0}}}
\@writefile{nav}{\headcommand {\beamer@framepages {15}{15}}}
\@writefile{nav}{\headcommand {\slideentry {1}{0}{13}{16/16}{}{0}}}
\@writefile{nav}{\headcommand {\beamer@framepages {16}{16}}}
\@writefile{nav}{\headcommand {\slideentry {1}{0}{14}{17/17}{}{0}}}
\@writefile{nav}{\headcommand {\beamer@framepages {17}{17}}}
\@writefile{nav}{\headcommand {\slideentry {1}{0}{15}{18/18}{}{0}}}
\@writefile{nav}{\headcommand {\beamer@framepages {18}{18}}}
\@writefile{nav}{\headcommand {\slideentry {1}{0}{16}{19/19}{}{0}}}
\@writefile{nav}{\headcommand {\beamer@framepages {19}{19}}}
\@writefile{nav}{\headcommand {\slideentry {1}{0}{17}{20/20}{}{0}}}
\@writefile{nav}{\headcommand {\beamer@framepages {20}{20}}}
\@writefile{loa}{\contentsline {algorithm}{\numberline {1}{\ignorespaces Algorithm for SNP systems}}}
\@writefile{nav}{\headcommand {\slideentry {1}{0}{18}{21/21}{}{0}}}
\@writefile{nav}{\headcommand {\beamer@framepages {21}{21}}}
\@writefile{nav}{\headcommand {\slideentry {1}{0}{19}{22/22}{}{0}}}
\@writefile{nav}{\headcommand {\beamer@framepages {22}{22}}}
\@writefile{toc}{\beamer@sectionintoc {2}{Statement of the Problem}{23}{0}{2}}
\@writefile{nav}{\headcommand {\sectionentry {2}{Statement of the Problem}{23}{Statement of the Problem}{0}}}
\@writefile{nav}{\headcommand {\beamer@sectionpages {3}{22}}}
\@writefile{nav}{\headcommand {\beamer@subsectionpages {3}{22}}}
\@writefile{nav}{\headcommand {\slideentry {2}{0}{1}{23/24}{}{0}}}
\@writefile{nav}{\headcommand {\beamer@framepages {23}{24}}}
\@writefile{toc}{\beamer@sectionintoc {3}{Significance of the Study}{25}{0}{3}}
\@writefile{nav}{\headcommand {\sectionentry {3}{Significance of the Study}{25}{Significance of the Study}{0}}}
\@writefile{nav}{\headcommand {\beamer@sectionpages {23}{24}}}
\@writefile{nav}{\headcommand {\beamer@subsectionpages {23}{24}}}
\@writefile{nav}{\headcommand {\slideentry {3}{0}{1}{25/27}{}{0}}}
\@writefile{nav}{\headcommand {\beamer@framepages {25}{27}}}
\@writefile{toc}{\beamer@sectionintoc {4}{Objectives of the Study}{28}{0}{4}}
\@writefile{nav}{\headcommand {\sectionentry {4}{Objectives of the Study}{28}{Objectives of the Study}{0}}}
\@writefile{nav}{\headcommand {\beamer@sectionpages {25}{27}}}
\@writefile{nav}{\headcommand {\beamer@subsectionpages {25}{27}}}
\@writefile{nav}{\headcommand {\slideentry {4}{0}{1}{28/29}{}{0}}}
\@writefile{nav}{\headcommand {\beamer@framepages {28}{29}}}
\@writefile{toc}{\beamer@sectionintoc {5}{Scope and Limitations of the Study}{30}{0}{5}}
\@writefile{nav}{\headcommand {\sectionentry {5}{Scope and Limitations of the Study}{30}{Scope and Limitations of the Study}{0}}}
\@writefile{nav}{\headcommand {\beamer@sectionpages {28}{29}}}
\@writefile{nav}{\headcommand {\beamer@subsectionpages {28}{29}}}
\@writefile{nav}{\headcommand {\slideentry {5}{0}{1}{30/32}{}{0}}}
\@writefile{nav}{\headcommand {\beamer@framepages {30}{32}}}
\@writefile{toc}{\beamer@sectionintoc {6}{Research Plan}{33}{0}{6}}
\@writefile{nav}{\headcommand {\sectionentry {6}{Research Plan}{33}{Research Plan}{0}}}
\@writefile{nav}{\headcommand {\beamer@sectionpages {30}{32}}}
\@writefile{nav}{\headcommand {\beamer@subsectionpages {30}{32}}}
\@writefile{nav}{\headcommand {\slideentry {6}{0}{1}{33/33}{}{0}}}
\@writefile{nav}{\headcommand {\beamer@framepages {33}{33}}}
\@writefile{toc}{\beamer@sectionintoc {7}{Improvised Algorithm}{34}{0}{7}}
\@writefile{nav}{\headcommand {\sectionentry {7}{Improvised Algorithm}{34}{Improvised Algorithm}{0}}}
\@writefile{nav}{\headcommand {\beamer@sectionpages {33}{33}}}
\@writefile{nav}{\headcommand {\beamer@subsectionpages {33}{33}}}
\@writefile{nav}{\headcommand {\slideentry {7}{0}{1}{34/34}{}{0}}}
\@writefile{nav}{\headcommand {\beamer@framepages {34}{34}}}
\@writefile{nav}{\headcommand {\slideentry {7}{0}{2}{35/35}{}{0}}}
\@writefile{nav}{\headcommand {\beamer@framepages {35}{35}}}
\@writefile{nav}{\headcommand {\slideentry {7}{0}{3}{36/36}{}{0}}}
\@writefile{nav}{\headcommand {\beamer@framepages {36}{36}}}
\@writefile{loa}{\contentsline {algorithm}{\numberline {2}{\ignorespaces Modified Algorithm for SNPDDs}}}
\@writefile{nav}{\headcommand {\slideentry {7}{0}{4}{37/37}{}{0}}}
\@writefile{nav}{\headcommand {\beamer@framepages {37}{37}}}
\@writefile{toc}{\beamer@sectionintoc {8}{Software Implementation}{38}{0}{8}}
\@writefile{nav}{\headcommand {\sectionentry {8}{Software Implementation}{38}{Software Implementation}{0}}}
\@writefile{nav}{\headcommand {\beamer@sectionpages {34}{37}}}
\@writefile{nav}{\headcommand {\beamer@subsectionpages {34}{37}}}
\@writefile{toc}{\beamer@subsectionintoc {8}{1}{Technical implementation}{38}{0}{8}}
\@writefile{nav}{\headcommand {\beamer@subsectionentry {0}{8}{1}{38}{Technical implementation}}\headcommand {\beamer@subsectionpages {38}{37}}}
\@writefile{nav}{\headcommand {\slideentry {8}{1}{1}{38/38}{Technical implementation}{0}}}
\@writefile{nav}{\headcommand {\beamer@framepages {38}{38}}}
\@writefile{toc}{\beamer@subsectionintoc {8}{2}{Software specifications}{39}{0}{8}}
\@writefile{nav}{\headcommand {\beamer@subsectionentry {0}{8}{2}{39}{Software specifications}}\headcommand {\beamer@subsectionpages {38}{38}}}
\@writefile{nav}{\headcommand {\slideentry {8}{2}{1}{39/39}{Software specifications}{0}}}
\@writefile{nav}{\headcommand {\beamer@framepages {39}{39}}}
\@writefile{toc}{\beamer@sectionintoc {9}{Closing Remarks}{40}{0}{9}}
\@writefile{nav}{\headcommand {\sectionentry {9}{Closing Remarks}{40}{Closing Remarks}{0}}}
\@writefile{nav}{\headcommand {\beamer@sectionpages {38}{39}}}
\@writefile{nav}{\headcommand {\beamer@subsectionpages {39}{39}}}
\@writefile{nav}{\headcommand {\slideentry {9}{0}{1}{40/40}{}{0}}}
\@writefile{nav}{\headcommand {\beamer@framepages {40}{40}}}
\citation{*}
\bibdata{refs}
\bibcite{gpusim}{\hyperlink {beamerbibgpusim}{Cabarle et~al., 2012}}
\bibcite{regex}{\hyperlink {beamerbibregex}{Carandang, 2017}}
\bibcite{cusnp}{\hyperlink {beamerbibcusnp}{Carandang et~al., }}
\bibcite{snp}{\hyperlink {beamerbibsnp}{Ionescu et~al., 2006}}
\bibcite{snpdb}{\hyperlink {beamerbibsnpdb}{Pan et~al., }}
\bibcite{memcomp}{\hyperlink {beamerbibmemcomp}{Paun, 2010}}
\bibcite{oxford}{\hyperlink {beamerbiboxford}{Paun et~al., 2009}}
\bibcite{snp-tutorial}{\hyperlink {beamerbibsnp-tutorial}{P\u {a}un, 2007}}
\bibcite{sipser}{\hyperlink {beamerbibsipser}{Sipser, }}
\bibcite{snpdd}{\hyperlink {beamerbibsnpdd}{Zhao et~al., 2016}}
\bibstyle{apalike}
\@writefile{toc}{\beamer@sectionintoc {10}{Bibliography}{41}{0}{10}}
\@writefile{nav}{\headcommand {\sectionentry {10}{Bibliography}{41}{Bibliography}{0}}}
\@writefile{nav}{\headcommand {\beamer@sectionpages {40}{40}}}
\@writefile{nav}{\headcommand {\beamer@subsectionpages {40}{40}}}
\@writefile{nav}{\headcommand {\slideentry {10}{0}{1}{41/41}{}{0}}}
\@writefile{nav}{\headcommand {\beamer@framepages {41}{41}}}
\@writefile{nav}{\headcommand {\beamer@partpages {1}{41}}}
\@writefile{nav}{\headcommand {\beamer@subsectionpages {41}{41}}}
\@writefile{nav}{\headcommand {\beamer@sectionpages {41}{41}}}
\@writefile{nav}{\headcommand {\beamer@documentpages {41}}}
\@writefile{nav}{\headcommand {\def \inserttotalframenumber {34}}}
