\relax 
\providecommand\hyper@newdestlabel[2]{}
\providecommand{\transparent@use}[1]{}
\providecommand\HyperFirstAtBeginDocument{\AtBeginDocument}
\HyperFirstAtBeginDocument{\ifx\hyper@anchor\@undefined
\global\let\oldcontentsline\contentsline
\gdef\contentsline#1#2#3#4{\oldcontentsline{#1}{#2}{#3}}
\global\let\oldnewlabel\newlabel
\gdef\newlabel#1#2{\newlabelxx{#1}#2}
\gdef\newlabelxx#1#2#3#4#5#6{\oldnewlabel{#1}{{#2}{#3}}}
\AtEndDocument{\ifx\hyper@anchor\@undefined
\let\contentsline\oldcontentsline
\let\newlabel\oldnewlabel
\fi}
\fi}
\global\let\hyper@last\relax 
\gdef\HyperFirstAtBeginDocument#1{#1}
\providecommand\HyField@AuxAddToFields[1]{}
\providecommand\HyField@AuxAddToCoFields[2]{}
\select@language{english}
\@writefile{toc}{\select@language{english}}
\@writefile{lof}{\select@language{english}}
\@writefile{lot}{\select@language{english}}
\@writefile{nav}{\headcommand {\slideentry {0}{0}{1}{1/1}{}{0}}}
\@writefile{nav}{\headcommand {\beamer@framepages {1}{1}}}
\@writefile{nav}{\headcommand {\slideentry {0}{0}{2}{2/2}{}{0}}}
\@writefile{nav}{\headcommand {\beamer@framepages {2}{2}}}
\@writefile{toc}{\beamer@sectionintoc {1}{Introduction}{3}{0}{1}}
\@writefile{nav}{\headcommand {\sectionentry {1}{Introduction}{3}{Introduction}{0}}}
\@writefile{nav}{\headcommand {\beamer@sectionpages {1}{2}}}
\@writefile{nav}{\headcommand {\beamer@subsectionpages {1}{2}}}
\@writefile{nav}{\headcommand {\slideentry {1}{0}{1}{3/3}{}{0}}}
\@writefile{nav}{\headcommand {\beamer@framepages {3}{3}}}
\citation{snp-tutorial}
\@writefile{toc}{\beamer@sectionintoc {2}{Definitions}{4}{0}{2}}
\@writefile{nav}{\headcommand {\sectionentry {2}{Definitions}{4}{Definitions}{0}}}
\@writefile{nav}{\headcommand {\beamer@sectionpages {3}{3}}}
\@writefile{nav}{\headcommand {\beamer@subsectionpages {3}{3}}}
\@writefile{toc}{\beamer@subsectionintoc {2}{1}{Spiking Neural P Systems}{4}{0}{2}}
\@writefile{nav}{\headcommand {\beamer@subsectionentry {0}{2}{1}{4}{Spiking Neural P Systems}}\headcommand {\beamer@subsectionpages {4}{3}}}
\@writefile{nav}{\headcommand {\slideentry {2}{1}{1}{4/4}{Spiking Neural P Systems}{0}}}
\@writefile{nav}{\headcommand {\beamer@framepages {4}{4}}}
\@writefile{toc}{\beamer@subsectionintoc {2}{2}{Spiking Neural P Systems with Divison and Dissolution}{5}{0}{2}}
\@writefile{nav}{\headcommand {\beamer@subsectionentry {0}{2}{2}{5}{Spiking Neural P Systems with Divison and Dissolution}}\headcommand {\beamer@subsectionpages {4}{4}}}
\@writefile{nav}{\headcommand {\slideentry {2}{2}{1}{5/5}{Spiking Neural P Systems with Divison and Dissolution}{0}}}
\@writefile{nav}{\headcommand {\beamer@framepages {5}{5}}}
\newlabel{fig:sample0}{{1}{6}{Spiking Neural P Systems with Divison and Dissolution}{Doc-Start}{}}
\@writefile{snm}{\beamer@slide {fig:sample0}{6}}
\@writefile{nav}{\headcommand {\slideentry {2}{2}{2}{6/6}{Spiking Neural P Systems with Divison and Dissolution}{0}}}
\@writefile{nav}{\headcommand {\beamer@framepages {6}{6}}}
\@writefile{nav}{\headcommand {\slideentry {2}{2}{3}{7/7}{Spiking Neural P Systems with Divison and Dissolution}{0}}}
\@writefile{nav}{\headcommand {\beamer@framepages {7}{7}}}
\@writefile{nav}{\headcommand {\slideentry {2}{2}{4}{8/8}{Spiking Neural P Systems with Divison and Dissolution}{0}}}
\@writefile{nav}{\headcommand {\beamer@framepages {8}{8}}}
\@writefile{nav}{\headcommand {\slideentry {2}{2}{5}{9/9}{Spiking Neural P Systems with Divison and Dissolution}{0}}}
\@writefile{nav}{\headcommand {\beamer@framepages {9}{9}}}
\newlabel{fig:sample1}{{2}{10}{Spiking Neural P Systems with Divison and Dissolution}{Doc-Start}{}}
\@writefile{snm}{\beamer@slide {fig:sample1}{10}}
\@writefile{nav}{\headcommand {\slideentry {2}{2}{6}{10/10}{Spiking Neural P Systems with Divison and Dissolution}{0}}}
\@writefile{nav}{\headcommand {\beamer@framepages {10}{10}}}
\newlabel{fig:sample2}{{3}{11}{Spiking Neural P Systems with Divison and Dissolution}{Doc-Start}{}}
\@writefile{snm}{\beamer@slide {fig:sample2}{11}}
\@writefile{nav}{\headcommand {\slideentry {2}{2}{7}{11/11}{Spiking Neural P Systems with Divison and Dissolution}{0}}}
\@writefile{nav}{\headcommand {\beamer@framepages {11}{11}}}
\newlabel{fig:sample3}{{4}{12}{Spiking Neural P Systems with Divison and Dissolution}{Doc-Start}{}}
\@writefile{snm}{\beamer@slide {fig:sample3}{12}}
\@writefile{nav}{\headcommand {\slideentry {2}{2}{8}{12/12}{Spiking Neural P Systems with Divison and Dissolution}{0}}}
\@writefile{nav}{\headcommand {\beamer@framepages {12}{12}}}
\newlabel{fig:sample4}{{5}{13}{Spiking Neural P Systems with Divison and Dissolution}{Doc-Start}{}}
\@writefile{snm}{\beamer@slide {fig:sample4}{13}}
\@writefile{nav}{\headcommand {\slideentry {2}{2}{9}{13/13}{Spiking Neural P Systems with Divison and Dissolution}{0}}}
\@writefile{nav}{\headcommand {\beamer@framepages {13}{13}}}
\newlabel{fig:sample5}{{6}{14}{Spiking Neural P Systems with Divison and Dissolution}{Doc-Start}{}}
\@writefile{snm}{\beamer@slide {fig:sample5}{14}}
\@writefile{nav}{\headcommand {\slideentry {2}{2}{10}{14/14}{Spiking Neural P Systems with Divison and Dissolution}{0}}}
\@writefile{nav}{\headcommand {\beamer@framepages {14}{14}}}
\newlabel{fig:sample6}{{7}{15}{Spiking Neural P Systems with Divison and Dissolution}{Doc-Start}{}}
\@writefile{snm}{\beamer@slide {fig:sample6}{15}}
\@writefile{nav}{\headcommand {\slideentry {2}{2}{11}{15/15}{Spiking Neural P Systems with Divison and Dissolution}{0}}}
\@writefile{nav}{\headcommand {\beamer@framepages {15}{15}}}
\newlabel{fig:sat0}{{8}{16}{Spiking Neural P Systems with Divison and Dissolution}{Doc-Start}{}}
\@writefile{snm}{\beamer@slide {fig:sat0}{16}}
\@writefile{nav}{\headcommand {\slideentry {2}{2}{12}{16/16}{Spiking Neural P Systems with Divison and Dissolution}{0}}}
\@writefile{nav}{\headcommand {\beamer@framepages {16}{16}}}
\newlabel{fig:sat1}{{9}{17}{Spiking Neural P Systems with Divison and Dissolution}{Doc-Start}{}}
\@writefile{snm}{\beamer@slide {fig:sat1}{17}}
\@writefile{nav}{\headcommand {\slideentry {2}{2}{13}{17/17}{Spiking Neural P Systems with Divison and Dissolution}{0}}}
\@writefile{nav}{\headcommand {\beamer@framepages {17}{17}}}
\newlabel{fig:sat2}{{10}{18}{Spiking Neural P Systems with Divison and Dissolution}{Doc-Start}{}}
\@writefile{snm}{\beamer@slide {fig:sat2}{18}}
\@writefile{nav}{\headcommand {\slideentry {2}{2}{14}{18/18}{Spiking Neural P Systems with Divison and Dissolution}{0}}}
\@writefile{nav}{\headcommand {\beamer@framepages {18}{18}}}
\newlabel{fig:sat3}{{11}{19}{Spiking Neural P Systems with Divison and Dissolution}{Doc-Start}{}}
\@writefile{snm}{\beamer@slide {fig:sat3}{19}}
\@writefile{nav}{\headcommand {\slideentry {2}{2}{15}{19/19}{Spiking Neural P Systems with Divison and Dissolution}{0}}}
\@writefile{nav}{\headcommand {\beamer@framepages {19}{19}}}
\newlabel{fig:sat4}{{12}{20}{Spiking Neural P Systems with Divison and Dissolution}{Doc-Start}{}}
\@writefile{snm}{\beamer@slide {fig:sat4}{20}}
\@writefile{nav}{\headcommand {\slideentry {2}{2}{16}{20/20}{Spiking Neural P Systems with Divison and Dissolution}{0}}}
\@writefile{nav}{\headcommand {\beamer@framepages {20}{20}}}
\newlabel{fig:sat5}{{13}{21}{Spiking Neural P Systems with Divison and Dissolution}{Doc-Start}{}}
\@writefile{snm}{\beamer@slide {fig:sat5}{21}}
\@writefile{nav}{\headcommand {\slideentry {2}{2}{17}{21/21}{Spiking Neural P Systems with Divison and Dissolution}{0}}}
\@writefile{nav}{\headcommand {\beamer@framepages {21}{21}}}
\newlabel{fig:sat6}{{14}{22}{Spiking Neural P Systems with Divison and Dissolution}{Doc-Start}{}}
\@writefile{snm}{\beamer@slide {fig:sat6}{22}}
\@writefile{nav}{\headcommand {\slideentry {2}{2}{18}{22/22}{Spiking Neural P Systems with Divison and Dissolution}{0}}}
\@writefile{nav}{\headcommand {\beamer@framepages {22}{22}}}
\newlabel{fig:sat7}{{15}{23}{Spiking Neural P Systems with Divison and Dissolution}{Doc-Start}{}}
\@writefile{snm}{\beamer@slide {fig:sat7}{23}}
\@writefile{nav}{\headcommand {\slideentry {2}{2}{19}{23/23}{Spiking Neural P Systems with Divison and Dissolution}{0}}}
\@writefile{nav}{\headcommand {\beamer@framepages {23}{23}}}
\newlabel{fig:sat8}{{16}{24}{Spiking Neural P Systems with Divison and Dissolution}{Doc-Start}{}}
\@writefile{snm}{\beamer@slide {fig:sat8}{24}}
\@writefile{nav}{\headcommand {\slideentry {2}{2}{20}{24/24}{Spiking Neural P Systems with Divison and Dissolution}{0}}}
\@writefile{nav}{\headcommand {\beamer@framepages {24}{24}}}
\newlabel{fig:sat9}{{17}{25}{Spiking Neural P Systems with Divison and Dissolution}{Doc-Start}{}}
\@writefile{snm}{\beamer@slide {fig:sat9}{25}}
\@writefile{nav}{\headcommand {\slideentry {2}{2}{21}{25/25}{Spiking Neural P Systems with Divison and Dissolution}{0}}}
\@writefile{nav}{\headcommand {\beamer@framepages {25}{25}}}
\@writefile{toc}{\beamer@subsectionintoc {2}{3}{Vectors and Matrices}{26}{0}{2}}
\@writefile{nav}{\headcommand {\beamer@subsectionentry {0}{2}{3}{26}{Vectors and Matrices}}\headcommand {\beamer@subsectionpages {5}{25}}}
\@writefile{nav}{\headcommand {\slideentry {2}{3}{1}{26/26}{Vectors and Matrices}{0}}}
\@writefile{nav}{\headcommand {\beamer@framepages {26}{26}}}
\@writefile{nav}{\headcommand {\slideentry {2}{3}{2}{27/27}{Vectors and Matrices}{0}}}
\@writefile{nav}{\headcommand {\beamer@framepages {27}{27}}}
\@writefile{nav}{\headcommand {\slideentry {2}{3}{3}{28/28}{Vectors and Matrices}{0}}}
\@writefile{nav}{\headcommand {\beamer@framepages {28}{28}}}
\@writefile{nav}{\headcommand {\slideentry {2}{3}{4}{29/29}{Vectors and Matrices}{0}}}
\@writefile{nav}{\headcommand {\beamer@framepages {29}{29}}}
\@writefile{nav}{\headcommand {\slideentry {2}{3}{5}{30/30}{Vectors and Matrices}{0}}}
\@writefile{nav}{\headcommand {\beamer@framepages {30}{30}}}
\@writefile{nav}{\headcommand {\slideentry {2}{3}{6}{31/31}{Vectors and Matrices}{0}}}
\@writefile{nav}{\headcommand {\beamer@framepages {31}{31}}}
\@writefile{nav}{\headcommand {\slideentry {2}{3}{7}{32/32}{Vectors and Matrices}{0}}}
\@writefile{nav}{\headcommand {\beamer@framepages {32}{32}}}
\@writefile{nav}{\headcommand {\slideentry {2}{3}{8}{33/33}{Vectors and Matrices}{0}}}
\@writefile{nav}{\headcommand {\beamer@framepages {33}{33}}}
\newlabel{my-label}{{2.9}{34}{\textbf {Removal Matrix}}{Doc-Start}{}}
\@writefile{snm}{\beamer@slide {my-label}{34}}
\@writefile{nav}{\headcommand {\slideentry {2}{3}{9}{34/34}{Vectors and Matrices}{0}}}
\@writefile{nav}{\headcommand {\beamer@framepages {34}{34}}}
\@writefile{nav}{\headcommand {\slideentry {2}{3}{10}{35/35}{Vectors and Matrices}{0}}}
\@writefile{nav}{\headcommand {\beamer@framepages {35}{35}}}
\@writefile{nav}{\headcommand {\slideentry {2}{3}{11}{36/36}{Vectors and Matrices}{0}}}
\@writefile{nav}{\headcommand {\beamer@framepages {36}{36}}}
\@writefile{nav}{\headcommand {\slideentry {2}{3}{12}{37/37}{Vectors and Matrices}{0}}}
\@writefile{nav}{\headcommand {\beamer@framepages {37}{37}}}
\@writefile{nav}{\headcommand {\slideentry {2}{3}{13}{38/38}{Vectors and Matrices}{0}}}
\@writefile{nav}{\headcommand {\beamer@framepages {38}{38}}}
\newlabel{my-label}{{39}{39}{Vectors and Matrices}{Doc-Start}{}}
\@writefile{snm}{\beamer@slide {my-label}{39}}
\@writefile{nav}{\headcommand {\slideentry {2}{3}{14}{39/39}{Vectors and Matrices}{0}}}
\@writefile{nav}{\headcommand {\beamer@framepages {39}{39}}}
\@writefile{nav}{\headcommand {\slideentry {2}{3}{15}{40/40}{Vectors and Matrices}{0}}}
\@writefile{nav}{\headcommand {\beamer@framepages {40}{40}}}
\@writefile{nav}{\headcommand {\slideentry {2}{3}{16}{41/41}{Vectors and Matrices}{0}}}
\@writefile{nav}{\headcommand {\beamer@framepages {41}{41}}}
\@writefile{toc}{\beamer@sectionintoc {3}{Algorithm Outline}{42}{0}{3}}
\@writefile{nav}{\headcommand {\sectionentry {3}{Algorithm Outline}{42}{Algorithm Outline}{0}}}
\@writefile{nav}{\headcommand {\beamer@sectionpages {4}{41}}}
\@writefile{nav}{\headcommand {\beamer@subsectionpages {26}{41}}}
\@writefile{toc}{\beamer@subsectionintoc {3}{1}{Algorithm for solving SNPDD}{42}{0}{3}}
\@writefile{nav}{\headcommand {\beamer@subsectionentry {0}{3}{1}{42}{Algorithm for solving SNPDD}}\headcommand {\beamer@subsectionpages {42}{41}}}
\@writefile{nav}{\headcommand {\slideentry {3}{1}{1}{42/42}{Algorithm for solving SNPDD}{0}}}
\@writefile{nav}{\headcommand {\beamer@framepages {42}{42}}}
\@writefile{toc}{\beamer@subsectionintoc {3}{2}{Algorithm for acquiring the Spike Train Vector}{43}{0}{3}}
\@writefile{nav}{\headcommand {\beamer@subsectionentry {0}{3}{2}{43}{Algorithm for acquiring the Spike Train Vector}}\headcommand {\beamer@subsectionpages {42}{42}}}
\@writefile{nav}{\headcommand {\slideentry {3}{2}{1}{43/43}{Algorithm for acquiring the Spike Train Vector}{0}}}
\@writefile{nav}{\headcommand {\beamer@framepages {43}{43}}}
\@writefile{toc}{\beamer@subsectionintoc {3}{3}{Algorithms for Division and Dissolution}{44}{0}{3}}
\@writefile{nav}{\headcommand {\beamer@subsectionentry {0}{3}{3}{44}{Algorithms for Division and Dissolution}}\headcommand {\beamer@subsectionpages {43}{43}}}
\@writefile{nav}{\headcommand {\slideentry {3}{3}{1}{44/44}{Algorithms for Division and Dissolution}{0}}}
\@writefile{nav}{\headcommand {\beamer@framepages {44}{44}}}
\@writefile{nav}{\headcommand {\slideentry {3}{3}{2}{45/45}{Algorithms for Division and Dissolution}{0}}}
\@writefile{nav}{\headcommand {\beamer@framepages {45}{45}}}
\@writefile{toc}{\beamer@sectionintoc {4}{Experimentation}{46}{0}{4}}
\@writefile{nav}{\headcommand {\sectionentry {4}{Experimentation}{46}{Experimentation}{0}}}
\@writefile{nav}{\headcommand {\beamer@sectionpages {42}{45}}}
\@writefile{nav}{\headcommand {\beamer@subsectionpages {44}{45}}}
\@writefile{toc}{\beamer@subsectionintoc {4}{1}{Limitations of the Software}{46}{0}{4}}
\@writefile{nav}{\headcommand {\beamer@subsectionentry {0}{4}{1}{46}{Limitations of the Software}}\headcommand {\beamer@subsectionpages {46}{45}}}
\@writefile{nav}{\headcommand {\slideentry {4}{1}{1}{46/46}{Limitations of the Software}{0}}}
\@writefile{nav}{\headcommand {\beamer@framepages {46}{46}}}
\citation{snpdd}
\@writefile{toc}{\beamer@subsectionintoc {4}{2}{Results}{47}{0}{4}}
\@writefile{nav}{\headcommand {\beamer@subsectionentry {0}{4}{2}{47}{Results}}\headcommand {\beamer@subsectionpages {46}{46}}}
\@writefile{toc}{\beamer@subsectionintoc {4}{3}{Results}{47}{0}{4}}
\@writefile{nav}{\headcommand {\beamer@subsectionentry {0}{4}{3}{47}{Results}}\headcommand {\beamer@subsectionpages {47}{46}}}
\@writefile{nav}{\headcommand {\slideentry {4}{3}{0}{47/47}{Results}{0}}}
\@writefile{nav}{\headcommand {\beamer@framepages {47}{47}}}
\@writefile{nav}{\headcommand {\slideentry {4}{3}{1}{48/48}{Results}{0}}}
\@writefile{nav}{\headcommand {\beamer@framepages {48}{48}}}
\@writefile{nav}{\headcommand {\slideentry {4}{3}{2}{49/49}{Results}{0}}}
\@writefile{nav}{\headcommand {\beamer@framepages {49}{49}}}
\@writefile{nav}{\headcommand {\slideentry {4}{3}{3}{50/50}{Results}{0}}}
\@writefile{nav}{\headcommand {\beamer@framepages {50}{50}}}
\@writefile{nav}{\headcommand {\slideentry {4}{3}{4}{51/51}{Results}{0}}}
\@writefile{nav}{\headcommand {\beamer@framepages {51}{51}}}
\@writefile{nav}{\headcommand {\slideentry {4}{3}{5}{52/52}{Results}{0}}}
\@writefile{nav}{\headcommand {\beamer@framepages {52}{52}}}
\@writefile{nav}{\headcommand {\slideentry {4}{3}{6}{53/53}{Results}{0}}}
\@writefile{nav}{\headcommand {\beamer@framepages {53}{53}}}
\@writefile{nav}{\headcommand {\slideentry {4}{3}{7}{54/54}{Results}{0}}}
\@writefile{nav}{\headcommand {\beamer@framepages {54}{54}}}
\@writefile{nav}{\headcommand {\slideentry {4}{3}{8}{55/55}{Results}{0}}}
\@writefile{nav}{\headcommand {\beamer@framepages {55}{55}}}
\@writefile{nav}{\headcommand {\slideentry {4}{3}{9}{56/56}{Results}{0}}}
\@writefile{nav}{\headcommand {\beamer@framepages {56}{56}}}
\@writefile{toc}{\beamer@sectionintoc {5}{Conclusion}{57}{0}{5}}
\@writefile{nav}{\headcommand {\sectionentry {5}{Conclusion}{57}{Conclusion}{0}}}
\@writefile{nav}{\headcommand {\beamer@sectionpages {46}{56}}}
\@writefile{nav}{\headcommand {\beamer@subsectionpages {47}{56}}}
\@writefile{toc}{\beamer@subsectionintoc {5}{1}{Conclusion}{57}{0}{5}}
\@writefile{nav}{\headcommand {\beamer@subsectionentry {0}{5}{1}{57}{Conclusion}}\headcommand {\beamer@subsectionpages {57}{56}}}
\@writefile{nav}{\headcommand {\slideentry {5}{1}{1}{57/57}{Conclusion}{0}}}
\@writefile{nav}{\headcommand {\beamer@framepages {57}{57}}}
\@writefile{toc}{\beamer@subsectionintoc {5}{2}{Prospects}{58}{0}{5}}
\@writefile{nav}{\headcommand {\beamer@subsectionentry {0}{5}{2}{58}{Prospects}}\headcommand {\beamer@subsectionpages {57}{57}}}
\@writefile{nav}{\headcommand {\slideentry {5}{2}{1}{58/58}{Prospects}{0}}}
\@writefile{nav}{\headcommand {\beamer@framepages {58}{58}}}
\@writefile{toc}{\beamer@subsectionintoc {5}{3}{Thanks}{59}{0}{5}}
\@writefile{nav}{\headcommand {\beamer@subsectionentry {0}{5}{3}{59}{Thanks}}\headcommand {\beamer@subsectionpages {58}{58}}}
\@writefile{nav}{\headcommand {\slideentry {5}{3}{1}{59/59}{Thanks}{0}}}
\@writefile{nav}{\headcommand {\beamer@framepages {59}{59}}}
\citation{*}
\bibdata{refs}
\bibcite{gpusim}{\hyperlink {beamerbibgpusim}{Cabarle et~al., 2012}}
\bibcite{regex}{\hyperlink {beamerbibregex}{Carandang, 2017}}
\bibcite{cusnp}{\hyperlink {beamerbibcusnp}{Carandang et~al., 2017}}
\bibcite{snp}{\hyperlink {beamerbibsnp}{Ionescu et~al., 2006}}
\bibcite{git}{\hyperlink {beamerbibgit}{Latoga, 2007}}
\bibcite{snpdb}{\hyperlink {beamerbibsnpdb}{Pan et~al., 2011}}
\bibcite{memcomp}{\hyperlink {beamerbibmemcomp}{Paun, 2010}}
\bibcite{spiketrain}{\hyperlink {beamerbibspiketrain}{Paun et~al., 2006}}
\bibcite{oxford}{\hyperlink {beamerbiboxford}{Paun et~al., 2009}}
\bibcite{snp-tutorial}{\hyperlink {beamerbibsnp-tutorial}{P\u {a}un, 2007}}
\bibcite{sipser}{\hyperlink {beamerbibsipser}{Sipser, 2007}}
\bibcite{matrix}{\hyperlink {beamerbibmatrix}{Zeng et~al., 2010}}
\bibcite{snpdd}{\hyperlink {beamerbibsnpdd}{Zhao et~al., 2016}}
\bibstyle{apalike}
\@writefile{toc}{\beamer@sectionintoc {6}{Bibliography}{60}{0}{6}}
\@writefile{nav}{\headcommand {\sectionentry {6}{Bibliography}{60}{Bibliography}{0}}}
\@writefile{nav}{\headcommand {\beamer@sectionpages {57}{59}}}
\@writefile{nav}{\headcommand {\beamer@subsectionpages {59}{59}}}
\@writefile{nav}{\headcommand {\slideentry {6}{0}{1}{60/60}{}{0}}}
\@writefile{nav}{\headcommand {\beamer@framepages {60}{60}}}
\@writefile{nav}{\headcommand {\beamer@partpages {1}{60}}}
\@writefile{nav}{\headcommand {\beamer@subsectionpages {60}{60}}}
\@writefile{nav}{\headcommand {\beamer@sectionpages {60}{60}}}
\@writefile{nav}{\headcommand {\beamer@documentpages {60}}}
\@writefile{nav}{\headcommand {\def \inserttotalframenumber {60}}}
