\BOOKMARK [2][]{Outline0.1}{Theoretical Framework}{}% 1
\BOOKMARK [2][]{Outline0.2}{Statement of the Problem}{}% 2
\BOOKMARK [2][]{Outline0.3}{Significance of the Study}{}% 3
\BOOKMARK [2][]{Outline0.4}{Objectives of the Study}{}% 4
\BOOKMARK [2][]{Outline0.5}{Scope and Limitations of the Study}{}% 5
\BOOKMARK [2][]{Outline0.6}{Research Plan}{}% 6
\BOOKMARK [2][]{Outline0.7}{Improvised Algorithm}{}% 7
\BOOKMARK [2][]{Outline0.8}{Software Implementation}{}% 8
\BOOKMARK [3][]{Outline0.8.1.38}{Technical implementation}{Outline0.8}% 9
\BOOKMARK [3][]{Outline0.8.2.39}{Software specifications}{Outline0.8}% 10
\BOOKMARK [2][]{Outline0.9}{Closing Remarks}{}% 11
\BOOKMARK [2][]{Outline0.10}{Bibliography}{}% 12
