\relax 
\select@language{english}
\@writefile{toc}{\select@language{english}}
\@writefile{lof}{\select@language{english}}
\@writefile{lot}{\select@language{english}}
\citation{snp}
\citation{snpdd}
\citation{memcomp}
\citation{snp}
\citation{sipser}
\citation{snp-tutorial}
\@writefile{toc}{\contentsline {section}{\numberline {1}Introduction}{1}}
\@writefile{toc}{\contentsline {section}{\numberline {2}Theoretical Framework}{1}}
\citation{snpdd}
\@writefile{toc}{\contentsline {section}{\numberline {3}Related Work}{2}}
\@writefile{toc}{\contentsline {subsection}{\numberline {3.1}Spiking Neural P Systems with Division and Dissolution}{2}}
\citation{snpdb}
\citation{gpusim}
\citation{matrix}
\@writefile{lof}{\contentsline {figure}{\numberline {1}{\ignorespaces An example of a simple SNPDD system}}{4}}
\newlabel{fig:sample0}{{1}{4}}
\@writefile{lof}{\contentsline {figure}{\numberline {2}{\ignorespaces An example of a simple SNPDD system after 1 step}}{4}}
\newlabel{fig:sample1}{{2}{4}}
\@writefile{lof}{\contentsline {figure}{\numberline {3}{\ignorespaces An example of a simple SNPDD system after 2 steps}}{4}}
\newlabel{fig:sample3}{{3}{4}}
\@writefile{lof}{\contentsline {figure}{\numberline {4}{\ignorespaces An example of a simple SNPDD system after 3 steps}}{4}}
\newlabel{fig:sample3}{{4}{4}}
\@writefile{lof}{\contentsline {figure}{\numberline {5}{\ignorespaces An example of a simple SNPDD system after 3 steps and a division operation}}{4}}
\newlabel{fig:sample4}{{5}{4}}
\citation{cusnp}
\@writefile{toc}{\contentsline {subsection}{\numberline {3.2}Definitions}{5}}
\citation{cusnp}
\citation{gpusim}
\citation{snpdd}
\citation{cusnp}
\citation{cusnp}
\@writefile{toc}{\contentsline {subsection}{\numberline {3.3}Algorithm for Spiking Neural P Systems}{7}}
\@writefile{loa}{\contentsline {algorithm}{\numberline {1}{\ignorespaces Algorithm for SNP systems}}{7}}
\newlabel{alg:snp}{{1}{7}}
\citation{regex}
\citation{oxford}
\citation{snpdd}
\@writefile{toc}{\contentsline {subsection}{\numberline {3.4}Regular Expressions}{8}}
\@writefile{toc}{\contentsline {subsection}{\numberline {3.5}Software aspects}{9}}
\@writefile{toc}{\contentsline {section}{\numberline {4}Algorithm for Spiking Neural P Systems with Division and Dissolution}{9}}
\@writefile{toc}{\contentsline {subsection}{\numberline {4.1}Redefinitions}{9}}
\@writefile{loa}{\contentsline {algorithm}{\numberline {2}{\ignorespaces Algorithm for obtaining the spike train vector}}{10}}
\newlabel{alg:spt}{{2}{10}}
\citation{cusnp}
\@writefile{toc}{\contentsline {subsection}{\numberline {4.2}Working Algorithm}{11}}
\@writefile{loa}{\contentsline {algorithm}{\numberline {3}{\ignorespaces Modified Algorithm for SNPDDs}}{11}}
\newlabel{alg:snpdd}{{3}{11}}
\@writefile{loa}{\contentsline {algorithm}{\numberline {4}{\ignorespaces Dissolve a neuron from the system}}{13}}
\newlabel{alg:dis}{{4}{13}}
\@writefile{loa}{\contentsline {algorithm}{\numberline {5}{\ignorespaces Divide a neuron from the system}}{13}}
\newlabel{alg:div}{{5}{13}}
\citation{cusnp}
\newlabel{lemma:dis}{{4.2}{14}}
\newlabel{lemma:div}{{4.3}{14}}
\citation{snpdd}
\citation{snpdd}
\@writefile{toc}{\contentsline {section}{\numberline {5}Simulation of the \textit  {SAT} Problem}{15}}
\@writefile{lof}{\contentsline {figure}{\numberline {6}{\ignorespaces The \textit  {SAT} problem over the boolean formula $ (x \lor y) \land (\neg x)$ at step $k = 0$}}{15}}
\newlabel{fig:sat0}{{6}{15}}
\@writefile{lof}{\contentsline {figure}{\numberline {7}{\ignorespaces The \textit  {SAT} problem over the boolean formula $ (x \lor y) \land (\neg x)$ at step $k = 1$}}{17}}
\newlabel{fig:sat1}{{7}{17}}
\@writefile{lof}{\contentsline {figure}{\numberline {8}{\ignorespaces The \textit  {SAT} problem over the boolean formula $ (x \lor y) \land (\neg x)$ at step $k = 2$}}{17}}
\newlabel{fig:sat2}{{8}{17}}
\@writefile{lof}{\contentsline {figure}{\numberline {9}{\ignorespaces The \textit  {SAT} problem over the boolean formula $ (x \lor y) \land (\neg x)$ at step $k = 3$}}{18}}
\newlabel{fig:sat3}{{9}{18}}
\@writefile{lof}{\contentsline {figure}{\numberline {10}{\ignorespaces The \textit  {SAT} problem over the boolean formula $ (x \lor y) \land (\neg x)$ at step $k = 4$}}{18}}
\newlabel{fig:sat4}{{10}{18}}
\@writefile{lof}{\contentsline {figure}{\numberline {11}{\ignorespaces The \textit  {SAT} problem over the boolean formula $ (x \lor y) \land (\neg x)$ at step $k = 5$}}{19}}
\newlabel{fig:sat5}{{11}{19}}
\@writefile{lof}{\contentsline {figure}{\numberline {12}{\ignorespaces The \textit  {SAT} problem over the boolean formula $ (x \lor y) \land (\neg x)$ at step $k = 6$}}{19}}
\newlabel{fig:sat6}{{12}{19}}
\@writefile{lof}{\contentsline {figure}{\numberline {13}{\ignorespaces The \textit  {SAT} problem over the boolean formula $ (x \lor y) \land (\neg x)$ at step $k = 7$}}{20}}
\newlabel{fig:sat7}{{13}{20}}
\@writefile{lof}{\contentsline {figure}{\numberline {14}{\ignorespaces The \textit  {SAT} problem over the boolean formula $ (x \lor y) \land (\neg x)$ at step $k = 8$}}{21}}
\newlabel{fig:sat8}{{14}{21}}
\@writefile{lof}{\contentsline {figure}{\numberline {15}{\ignorespaces The \textit  {SAT} problem over the boolean formula $ (x \lor y) \land (\neg x)$ at step $k = 9$}}{21}}
\newlabel{fig:sat9}{{15}{21}}
\@writefile{toc}{\contentsline {section}{\numberline {6}Software Implementation}{22}}
\@writefile{toc}{\contentsline {subsection}{\numberline {6.1}Technical specifications}{22}}
\citation{git}
\@writefile{toc}{\contentsline {subsection}{\numberline {6.2}Experimental Results}{23}}
\citation{snpdd}
\@writefile{lof}{\contentsline {figure}{\numberline {16}{\ignorespaces Simulation results on the SAT problem of Figure \ref  {fig:sat0}}}{24}}
\newlabel{img:sat}{{16}{24}}
\@writefile{lof}{\contentsline {figure}{\numberline {17}{\ignorespaces Simulation results on the SAT problem on the Boolean formula $(x) \lor (\neg x) $}}{24}}
\newlabel{img:sat}{{17}{24}}
\@writefile{lof}{\contentsline {figure}{\numberline {18}{\ignorespaces Simulation results on the Subset Sum problem}}{25}}
\newlabel{img:sum}{{18}{25}}
\citation{cusnp}
\@writefile{lof}{\contentsline {figure}{\numberline {19}{\ignorespaces Simulation results on the Subset Sum problem for 1, 1, 1 and $S = 5$}}{26}}
\newlabel{img:sum}{{19}{26}}
\@writefile{toc}{\contentsline {section}{\numberline {7}Conclusion}{26}}
\citation{*}
\bibdata{refs}
\bibcite{gpusim}{Cabarle et~al., 2012}
\bibcite{regex}{Carandang, 2017}
\bibcite{cusnp}{Carandang et~al., 2017}
\bibcite{snp}{Ionescu et~al., 2006}
\bibcite{git}{Latoga, 2007}
\bibcite{snpdb}{Pan et~al., 2011}
\bibcite{memcomp}{Paun, 2010}
\bibcite{spiketrain}{Paun et~al., 2006}
\bibcite{oxford}{Paun et~al., 2009}
\bibcite{snp-tutorial}{P\u {a}un, 2007}
\bibcite{sipser}{Sipser, 2007}
\bibcite{matrix}{Zeng et~al., 2010}
\bibcite{snpdd}{Zhao et~al., 2016}
\bibstyle{apalike}
