\BOOKMARK [1][-]{section.1}{Background of the Study}{}% 1
\BOOKMARK [1][-]{section.2}{Theoretical Framework}{}% 2
\BOOKMARK [1][-]{section.3}{Related work}{}% 3
\BOOKMARK [1][-]{section.4}{Problem Statement}{}% 4
\BOOKMARK [1][-]{section.5}{Significance of the study}{}% 5
\BOOKMARK [1][-]{section.6}{Objectives of the Study}{}% 6
\BOOKMARK [1][-]{section.7}{Scope and Limitations of the Study}{}% 7
\BOOKMARK [1][-]{section.8}{Research plan}{}% 8
\BOOKMARK [2][-]{subsection.8.1}{Methodology}{section.8}% 9
\BOOKMARK [2][-]{subsection.8.2}{Timetable}{section.8}% 10
\BOOKMARK [2][-]{subsection.8.3}{Research outputs}{section.8}% 11
\BOOKMARK [2][-]{subsection.8.4}{A sample table}{section.8}% 12
